COMP/STAT112 Notebook - Exam 2
…
Top Five Countries Graph

Research Question 2: Which top 5 countries consume each type of food?

Code
top_categories <- fcc |>
  group_by(food_category, country) |>
  summarize(consumption = sum(consumption), .groups = "drop") |>
  arrange(food_category, desc(consumption)) |>
  group_by(food_category) |>
  slice_head(n = 5)

top_categories

# A tibble: 55 × 3
# Groups:   food_category [11]
   food_category country   consumption
   <fct>         <chr>           <dbl>
 1 Beef          Argentina        55.5
 2 Beef          Brazil           39.2
 3 Beef          USA              36.2
 4 Beef          Australia        33.9
 5 Beef          Bermuda          33.2
 6 Eggs          Japan            19.2
 7 Eggs          Paraguay         18.8
 8 Eggs          China            18.8
 9 Eggs          Mexico           18.3
10 Eggs          Ukraine          18.0
# ℹ 45 more rows
…
