COMP/STAT112 Notebook - 15 Dates
…
Build your code line by line. It’s important to understand what’s being piped into each function!

Ask what you can rearrange and still get the same result.

Read your final code like a paragraph / a conversation. Would another person be able to follow your logic?

# Sort Gentoo penguins from biggest to smallest with respect to their bill length in cm (there are 10 mm in a cm)

penguins |>
  filter(species == "Gentoo") |>
  mutate(bill_length_cm = bill_length_mm/10) |>
  arrange(desc(bill_length_cm))

# A tibble: 124 × 9
   species island bill_length_mm bill_depth_mm flipper_length_mm body_mass_g
   <chr>   <chr>           <dbl>         <dbl>             <dbl>       <dbl>
 1 Gentoo  Biscoe           59.6          17                 230        6050
 2 Gentoo  Biscoe           55.9          17                 228        5600
 3 Gentoo  Biscoe           55.1          16                 230        5850
 4 Gentoo  Biscoe           54.3          15.7               231        5650
 5 Gentoo  Biscoe           53.4          15.8               219        5500
 6 Gentoo  Biscoe           52.5          15.6               221        5450
 7 Gentoo  Biscoe           52.2          17.1               228        5400
 8 Gentoo  Biscoe           52.1          17                 230        5550
 9 Gentoo  Biscoe           51.5          16.3               230        5500
10 Gentoo  Biscoe           51.3          14.2               218        5300
# ℹ 114 more rows
# ℹ 3 more variables: sex <chr>, year <dbl>, bill_length_cm <dbl>
…
Use these shortcuts to create the following datasets.

# First: recall the variable names
names(penguins)

[1] "species"           "island"            "bill_length_mm"   
[4] "bill_depth_mm"     "flipper_length_mm" "body_mass_g"      
[7] "sex"               "year"             

# Use a shortcut to keep everything but the year and island variables

penguins |>
  select(-year, -island)

# A tibble: 344 × 6
   species bill_length_mm bill_depth_mm flipper_length_mm body_mass_g sex   
   <chr>            <dbl>         <dbl>             <dbl>       <dbl> <chr> 
 1 Adelie            39.1          18.7               181        3750 male  
 2 Adelie            39.5          17.4               186        3800 female
 3 Adelie            40.3          18                 195        3250 female
 4 Adelie            NA            NA                  NA          NA <NA>  
 5 Adelie            36.7          19.3               193        3450 female
 6 Adelie            39.3          20.6               190        3650 male  
 7 Adelie            38.9          17.8               181        3625 female
 8 Adelie            39.2          19.6               195        4675 male  
 9 Adelie            34.1          18.1               193        3475 <NA>  
10 Adelie            42            20.2               190        4250 <NA>  
# ℹ 334 more rows

# Use a shortcut to keep only species and the penguin characteristics measured in mm

penguins |>
  select(contains("mm"))

# A tibble: 344 × 3
   bill_length_mm bill_depth_mm flipper_length_mm
            <dbl>         <dbl>             <dbl>
 1           39.1          18.7               181
 2           39.5          17.4               186
 3           40.3          18                 195
 4           NA            NA                  NA
 5           36.7          19.3               193
 6           39.3          20.6               190
 7           38.9          17.8               181
 8           39.2          19.6               195
 9           34.1          18.1               193
10           42            20.2               190
# ℹ 334 more rows

# Use a shortcut to keep only species and bill-related measurements

penguins |>
  select(species, starts_with("bill"))

# A tibble: 344 × 3
   species bill_length_mm bill_depth_mm
   <chr>            <dbl>         <dbl>
 1 Adelie            39.1          18.7
 2 Adelie            39.5          17.4
 3 Adelie            40.3          18  
 4 Adelie            NA            NA  
 5 Adelie            36.7          19.3
 6 Adelie            39.3          20.6
 7 Adelie            38.9          17.8
 8 Adelie            39.2          19.6
 9 Adelie            34.1          18.1
10 Adelie            42            20.2
# ℹ 334 more rows

# Use a shortcut to keep only species and the length-related characteristics

penguins |>
  select(species, contains("length"))

# A tibble: 344 × 3
   species bill_length_mm flipper_length_mm
   <chr>            <dbl>             <dbl>
 1 Adelie            39.1               181
 2 Adelie            39.5               186
 3 Adelie            40.3               195
 4 Adelie            NA                  NA
 5 Adelie            36.7               193
 6 Adelie            39.3               190
 7 Adelie            38.9               181
 8 Adelie            39.2               195
 9 Adelie            34.1               193
10 Adelie            42                 190
# ℹ 334 more rows
…
Birthdays gives the number of births recorded on each day of the year in each state from 1969 to 19881. We can use our wrangling skills to understand some drivers of daily births. Putting these all together can be challenging! Remember the following ways to make tasks more manageable:

Translate the prompt into our 6 verbs (and count()). That is, think before you type.

Build your code line by line. It’s important to understand what’s being piped into each function!

Exercise 5: Warming up

# How many days of data do we have for each state? 240. 
Birthdays |>
  group_by(state) |>
  summarize(count(day))

# A tibble: 51 × 2
   state `count(day)`
   <chr>        <int>
 1 AK             240
 2 AL             240
 3 AR             240
 4 AZ             240
 5 CA             240
 6 CO             240
 7 CT             240
 8 DC             240
 9 DE             240
10 FL             240
# ℹ 41 more rows

# How many total births were there in this time period?
Birthdays |>
  summarize(total_births = sum(births))

  total_births
1     70486538

# How many total births were there per state in this time period, sorted from low to high?
Birthdays |>
  group_by(state) |>
  summarize(total_birth = count(births)) |>
  arrange(total_birth)

# A tibble: 51 × 2
   state total_birth
   <chr>       <int>
 1 DE              1
 2 HI              1
 3 IA              1
 4 ID              1
 5 LA              1
 6 MN              1
 7 MO              1
 8 MT              1
 9 OK              1
10 RI              1
# ℹ 41 more rows
…
It is interesting how the total number of weekly births have contrasting trends, as Louisiana dips from week 10-20 before peaking around week 35, while Minnesota actually peaks around week 20, with a steady decline after. Overall, Louisiana has consistently higher weekly birth totals, although the two states overlap from about weeks 15-25.

Exercise 8: More Practice

Part a

Create a dataset with only births in Massachusetts (MA) in 1979 and sort the days from those with the most births to those with the fewest.

Birthdays |>
  filter(state == "MA", year == "1979") |>
  group_by(desc(births)) |>
  select(state, year, births, day)

# A tibble: 365 × 5
# Groups:   desc(births) [98]
   `desc(births)` state  year births   day
            <int> <chr> <int>  <int> <int>
 1           -144 MA     1979    144     1
 2           -206 MA     1979    206     2
 3           -222 MA     1979    222     3
 4           -184 MA     1979    184     4
 5           -192 MA     1979    192     5
 6           -169 MA     1979    169     6
 7           -155 MA     1979    155     7
 8           -191 MA     1979    191     8
 9           -180 MA     1979    180     9
10           -193 MA     1979    193    10
# ℹ 355 more rows
…
